%YAML 1.1
%TAG !u! tag:unity3d.com,2011:
--- !u!1001 &4311706572522187866
PrefabInstance:
  m_ObjectHideFlags: 0
  serializedVersion: 2
  m_Modification:
    m_TransformParent: {fileID: 0}
    m_Modifications:
    - target: {fileID: -4216859302048453862, guid: ac54b3555e83a8d47892b037b4bdf53d,
        type: 3}
      propertyPath: m_LocalPosition.x
      value: -14.02
      objectReference: {fileID: 0}
    - target: {fileID: -4216859302048453862, guid: ac54b3555e83a8d47892b037b4bdf53d,
        type: 3}
      propertyPath: m_LocalPosition.y
      value: 7.74
      objectReference: {fileID: 0}
    - target: {fileID: -4216859302048453862, guid: ac54b3555e83a8d47892b037b4bdf53d,
        type: 3}
      propertyPath: m_LocalPosition.z
      value: 6.2636623
      objectReference: {fileID: 0}
    - target: {fileID: -4216859302048453862, guid: ac54b3555e83a8d47892b037b4bdf53d,
        type: 3}
      propertyPath: m_LocalRotation.x
      value: 0
      objectReference: {fileID: 0}
    - target: {fileID: -4216859302048453862, guid: ac54b3555e83a8d47892b037b4bdf53d,
        type: 3}
      propertyPath: m_LocalRotation.y
      value: 0
      objectReference: {fileID: 0}
    - target: {fileID: -4216859302048453862, guid: ac54b3555e83a8d47892b037b4bdf53d,
        type: 3}
      propertyPath: m_LocalRotation.z
      value: 0
      objectReference: {fileID: 0}
    - target: {fileID: -4216859302048453862, guid: ac54b3555e83a8d47892b037b4bdf53d,
        type: 3}
      propertyPath: m_LocalRotation.w
      value: 1
      objectReference: {fileID: 0}
    - target: {fileID: -4216859302048453862, guid: ac54b3555e83a8d47892b037b4bdf53d,
        type: 3}
      propertyPath: m_RootOrder
      value: 0
      objectReference: {fileID: 0}
    - target: {fileID: -4216859302048453862, guid: ac54b3555e83a8d47892b037b4bdf53d,
        type: 3}
      propertyPath: m_LocalEulerAnglesHint.x
      value: 0
      objectReference: {fileID: 0}
    - target: {fileID: -4216859302048453862, guid: ac54b3555e83a8d47892b037b4bdf53d,
        type: 3}
      propertyPath: m_LocalEulerAnglesHint.y
      value: 0
      objectReference: {fileID: 0}
    - target: {fileID: -4216859302048453862, guid: ac54b3555e83a8d47892b037b4bdf53d,
        type: 3}
      propertyPath: m_LocalEulerAnglesHint.z
      value: 0
      objectReference: {fileID: 0}
    - target: {fileID: -927199367670048503, guid: ac54b3555e83a8d47892b037b4bdf53d,
        type: 3}
      propertyPath: m_Name
      value: LadaProp_RED
      objectReference: {fileID: 0}
    m_RemovedComponents: []
  m_SourcePrefab: {fileID: 100100000, guid: ac54b3555e83a8d47892b037b4bdf53d, type: 3}
