%YAML 1.1
%TAG !u! tag:unity3d.com,2011:
--- !u!1001 &3669401200768496912
PrefabInstance:
  m_ObjectHideFlags: 0
  serializedVersion: 2
  m_Modification:
    m_TransformParent: {fileID: 0}
    m_Modifications:
    - target: {fileID: -4216859302048453862, guid: 048fd6e04b90d034681dc28a8d0c8970,
        type: 3}
      propertyPath: m_LocalPosition.x
      value: 9.229402
      objectReference: {fileID: 0}
    - target: {fileID: -4216859302048453862, guid: 048fd6e04b90d034681dc28a8d0c8970,
        type: 3}
      propertyPath: m_LocalPosition.y
      value: 3.480665
      objectReference: {fileID: 0}
    - target: {fileID: -4216859302048453862, guid: 048fd6e04b90d034681dc28a8d0c8970,
        type: 3}
      propertyPath: m_LocalPosition.z
      value: 17.935205
      objectReference: {fileID: 0}
    - target: {fileID: -4216859302048453862, guid: 048fd6e04b90d034681dc28a8d0c8970,
        type: 3}
      propertyPath: m_LocalRotation.x
      value: 0
      objectReference: {fileID: 0}
    - target: {fileID: -4216859302048453862, guid: 048fd6e04b90d034681dc28a8d0c8970,
        type: 3}
      propertyPath: m_LocalRotation.y
      value: 0
      objectReference: {fileID: 0}
    - target: {fileID: -4216859302048453862, guid: 048fd6e04b90d034681dc28a8d0c8970,
        type: 3}
      propertyPath: m_LocalRotation.z
      value: 0
      objectReference: {fileID: 0}
    - target: {fileID: -4216859302048453862, guid: 048fd6e04b90d034681dc28a8d0c8970,
        type: 3}
      propertyPath: m_LocalRotation.w
      value: 1
      objectReference: {fileID: 0}
    - target: {fileID: -4216859302048453862, guid: 048fd6e04b90d034681dc28a8d0c8970,
        type: 3}
      propertyPath: m_RootOrder
      value: 0
      objectReference: {fileID: 0}
    - target: {fileID: -4216859302048453862, guid: 048fd6e04b90d034681dc28a8d0c8970,
        type: 3}
      propertyPath: m_LocalEulerAnglesHint.x
      value: 0
      objectReference: {fileID: 0}
    - target: {fileID: -4216859302048453862, guid: 048fd6e04b90d034681dc28a8d0c8970,
        type: 3}
      propertyPath: m_LocalEulerAnglesHint.y
      value: 0
      objectReference: {fileID: 0}
    - target: {fileID: -4216859302048453862, guid: 048fd6e04b90d034681dc28a8d0c8970,
        type: 3}
      propertyPath: m_LocalEulerAnglesHint.z
      value: 0
      objectReference: {fileID: 0}
    - target: {fileID: -927199367670048503, guid: 048fd6e04b90d034681dc28a8d0c8970,
        type: 3}
      propertyPath: m_Name
      value: NewsPaper_Vendor_Empty
      objectReference: {fileID: 0}
    m_RemovedComponents: []
  m_SourcePrefab: {fileID: 100100000, guid: 048fd6e04b90d034681dc28a8d0c8970, type: 3}
